--temp-output:/home/xaviersanchez/Documents/workspace/lab/DotNetCore/efc/obj/Debug/netcoreapp1.0/
--out:/home/xaviersanchez/Documents/workspace/lab/DotNetCore/efc/bin/Debug/netcoreapp1.0/efc.dll
--define:DEBUG
--define:TRACE
--define:NETCOREAPP1_0
--suppress-warning:CS1701
--suppress-warning:CS1702
--suppress-warning:CS1705
--optimize:False
--debug-type:portable
--emit-entry-point:True
--output-name:efc
--file-version:1.0.0.0
--version:1.0.0.0
--informational-version:1.0.0
--target-framework:.NETCoreApp,Version=v1.0
--reference:/home/xaviersanchez/.nuget/packages/Microsoft.AspNetCore.Hosting.Abstractions/1.0.0/lib/netstandard1.3/Microsoft.AspNetCore.Hosting.Abstractions.dll
--reference:/home/xaviersanchez/.nuget/packages/Microsoft.AspNetCore.Hosting.Server.Abstractions/1.0.0/lib/netstandard1.3/Microsoft.AspNetCore.Hosting.Server.Abstractions.dll
--reference:/home/xaviersanchez/.nuget/packages/Microsoft.AspNetCore.Http.Abstractions/1.0.0/lib/netstandard1.3/Microsoft.AspNetCore.Http.Abstractions.dll
--reference:/home/xaviersanchez/.nuget/packages/Microsoft.AspNetCore.Http.Features/1.0.0/lib/netstandard1.3/Microsoft.AspNetCore.Http.Features.dll
--reference:/home/xaviersanchez/.nuget/packages/Microsoft.CSharp/4.0.1/ref/netstandard1.0/Microsoft.CSharp.dll
--reference:/home/xaviersanchez/.nuget/packages/Microsoft.Data.Sqlite/1.0.0/lib/netstandard1.3/Microsoft.Data.Sqlite.dll
--reference:/home/xaviersanchez/.nuget/packages/Microsoft.DotNet.Cli.Utils/1.0.0-preview2-003121/lib/netstandard1.6/Microsoft.DotNet.Cli.Utils.dll
--reference:/home/xaviersanchez/.nuget/packages/Microsoft.DotNet.InternalAbstractions/1.0.0/lib/netstandard1.3/Microsoft.DotNet.InternalAbstractions.dll
--reference:/home/xaviersanchez/.nuget/packages/Microsoft.DotNet.ProjectModel/1.0.0-rc3-003121/lib/netstandard1.6/Microsoft.DotNet.ProjectModel.dll
--reference:/home/xaviersanchez/.nuget/packages/Microsoft.EntityFrameworkCore/1.0.0/lib/netstandard1.3/Microsoft.EntityFrameworkCore.dll
--reference:/home/xaviersanchez/.nuget/packages/Microsoft.EntityFrameworkCore.Design/1.0.0-preview2-final/lib/netcoreapp1.0/Microsoft.EntityFrameworkCore.Design.dll
--reference:/home/xaviersanchez/.nuget/packages/Microsoft.EntityFrameworkCore.Design.Core/1.0.0-preview2-final/lib/netstandard1.3/Microsoft.EntityFrameworkCore.Design.Core.dll
--reference:/home/xaviersanchez/.nuget/packages/Microsoft.EntityFrameworkCore.Relational/1.0.0/lib/netstandard1.3/Microsoft.EntityFrameworkCore.Relational.dll
--reference:/home/xaviersanchez/.nuget/packages/Microsoft.EntityFrameworkCore.Relational.Design/1.0.0/lib/netstandard1.3/Microsoft.EntityFrameworkCore.Relational.Design.dll
--reference:/home/xaviersanchez/.nuget/packages/Microsoft.EntityFrameworkCore.Sqlite/1.0.0/lib/netstandard1.3/Microsoft.EntityFrameworkCore.Sqlite.dll
--reference:/home/xaviersanchez/.nuget/packages/Microsoft.EntityFrameworkCore.Tools/1.0.0-preview2-final/lib/netcoreapp1.0/dotnet-ef.dll
--reference:/home/xaviersanchez/.nuget/packages/Microsoft.Extensions.Caching.Abstractions/1.0.0/lib/netstandard1.0/Microsoft.Extensions.Caching.Abstractions.dll
--reference:/home/xaviersanchez/.nuget/packages/Microsoft.Extensions.Caching.Memory/1.0.0/lib/netstandard1.3/Microsoft.Extensions.Caching.Memory.dll
--reference:/home/xaviersanchez/.nuget/packages/Microsoft.Extensions.CommandLineUtils/1.0.0/lib/netstandard1.3/Microsoft.Extensions.CommandLineUtils.dll
--reference:/home/xaviersanchez/.nuget/packages/Microsoft.Extensions.Configuration.Abstractions/1.0.0/lib/netstandard1.0/Microsoft.Extensions.Configuration.Abstractions.dll
--reference:/home/xaviersanchez/.nuget/packages/Microsoft.Extensions.DependencyInjection/1.0.0/lib/netstandard1.1/Microsoft.Extensions.DependencyInjection.dll
--reference:/home/xaviersanchez/.nuget/packages/Microsoft.Extensions.DependencyInjection.Abstractions/1.0.0/lib/netstandard1.0/Microsoft.Extensions.DependencyInjection.Abstractions.dll
--reference:/home/xaviersanchez/.nuget/packages/Microsoft.Extensions.DependencyModel/1.0.0/lib/netstandard1.6/Microsoft.Extensions.DependencyModel.dll
--reference:/home/xaviersanchez/.nuget/packages/Microsoft.Extensions.FileProviders.Abstractions/1.0.0/lib/netstandard1.0/Microsoft.Extensions.FileProviders.Abstractions.dll
--reference:/home/xaviersanchez/.nuget/packages/Microsoft.Extensions.Logging/1.0.0/lib/netstandard1.1/Microsoft.Extensions.Logging.dll
--reference:/home/xaviersanchez/.nuget/packages/Microsoft.Extensions.Logging.Abstractions/1.0.0/lib/netstandard1.1/Microsoft.Extensions.Logging.Abstractions.dll
--reference:/home/xaviersanchez/.nuget/packages/Microsoft.Extensions.Options/1.0.0/lib/netstandard1.0/Microsoft.Extensions.Options.dll
--reference:/home/xaviersanchez/.nuget/packages/Microsoft.Extensions.Primitives/1.0.0/lib/netstandard1.0/Microsoft.Extensions.Primitives.dll
--reference:/home/xaviersanchez/.nuget/packages/Microsoft.VisualBasic/10.0.1/ref/netstandard1.1/Microsoft.VisualBasic.dll
--reference:/home/xaviersanchez/.nuget/packages/Microsoft.Win32.Primitives/4.0.1/ref/netstandard1.3/Microsoft.Win32.Primitives.dll
--reference:/home/xaviersanchez/.nuget/packages/Newtonsoft.Json/9.0.1/lib/netstandard1.0/Newtonsoft.Json.dll
--reference:/home/xaviersanchez/.nuget/packages/NuGet.Common/3.5.0-beta2-1484/lib/netstandard1.3/NuGet.Common.dll
--reference:/home/xaviersanchez/.nuget/packages/NuGet.Configuration/3.5.0-beta2-1484/lib/netstandard1.3/NuGet.Configuration.dll
--reference:/home/xaviersanchez/.nuget/packages/NuGet.DependencyResolver.Core/3.5.0-beta2-1484/lib/netstandard1.3/NuGet.DependencyResolver.Core.dll
--reference:/home/xaviersanchez/.nuget/packages/NuGet.Frameworks/3.5.0-beta2-1484/lib/netstandard1.3/NuGet.Frameworks.dll
--reference:/home/xaviersanchez/.nuget/packages/NuGet.LibraryModel/3.5.0-beta2-1484/lib/netstandard1.3/NuGet.LibraryModel.dll
--reference:/home/xaviersanchez/.nuget/packages/NuGet.Packaging/3.5.0-beta2-1484/lib/netstandard1.3/NuGet.Packaging.dll
--reference:/home/xaviersanchez/.nuget/packages/NuGet.Packaging.Core/3.5.0-beta2-1484/lib/netstandard1.3/NuGet.Packaging.Core.dll
--reference:/home/xaviersanchez/.nuget/packages/NuGet.Packaging.Core.Types/3.5.0-beta2-1484/lib/netstandard1.3/NuGet.Packaging.Core.Types.dll
--reference:/home/xaviersanchez/.nuget/packages/NuGet.ProjectModel/3.5.0-beta2-1484/lib/netstandard1.3/NuGet.ProjectModel.dll
--reference:/home/xaviersanchez/.nuget/packages/NuGet.Protocol.Core.Types/3.5.0-beta2-1484/lib/netstandard1.3/NuGet.Protocol.Core.Types.dll
--reference:/home/xaviersanchez/.nuget/packages/NuGet.Protocol.Core.v3/3.5.0-beta2-1484/lib/netstandard1.3/NuGet.Protocol.Core.v3.dll
--reference:/home/xaviersanchez/.nuget/packages/NuGet.Repositories/3.5.0-beta2-1484/lib/netstandard1.3/NuGet.Repositories.dll
--reference:/home/xaviersanchez/.nuget/packages/NuGet.RuntimeModel/3.5.0-beta2-1484/lib/netstandard1.3/NuGet.RuntimeModel.dll
--reference:/home/xaviersanchez/.nuget/packages/NuGet.Versioning/3.5.0-beta2-1484/lib/netstandard1.0/NuGet.Versioning.dll
--reference:/home/xaviersanchez/.nuget/packages/Remotion.Linq/2.1.1/lib/netstandard1.0/Remotion.Linq.dll
--reference:/home/xaviersanchez/.nuget/packages/System.AppContext/4.1.0/ref/netstandard1.6/System.AppContext.dll
--reference:/home/xaviersanchez/.nuget/packages/System.Buffers/4.0.0/lib/netstandard1.1/System.Buffers.dll
--reference:/home/xaviersanchez/.nuget/packages/System.Collections/4.0.11/ref/netstandard1.3/System.Collections.dll
--reference:/home/xaviersanchez/.nuget/packages/System.Collections.Concurrent/4.0.12/ref/netstandard1.3/System.Collections.Concurrent.dll
--reference:/home/xaviersanchez/.nuget/packages/System.Collections.Immutable/1.2.0/lib/netstandard1.0/System.Collections.Immutable.dll
--reference:/home/xaviersanchez/.nuget/packages/System.Collections.NonGeneric/4.0.1/ref/netstandard1.3/System.Collections.NonGeneric.dll
--reference:/home/xaviersanchez/.nuget/packages/System.ComponentModel/4.0.1/ref/netstandard1.0/System.ComponentModel.dll
--reference:/home/xaviersanchez/.nuget/packages/System.ComponentModel.Annotations/4.1.0/ref/netstandard1.4/System.ComponentModel.Annotations.dll
--reference:/home/xaviersanchez/.nuget/packages/System.Console/4.0.0/ref/netstandard1.3/System.Console.dll
--reference:/home/xaviersanchez/.nuget/packages/System.Data.Common/4.1.0/ref/netstandard1.2/System.Data.Common.dll
--reference:/home/xaviersanchez/.nuget/packages/System.Diagnostics.Debug/4.0.11/ref/netstandard1.3/System.Diagnostics.Debug.dll
--reference:/home/xaviersanchez/.nuget/packages/System.Diagnostics.DiagnosticSource/4.0.0/lib/netstandard1.3/System.Diagnostics.DiagnosticSource.dll
--reference:/home/xaviersanchez/.nuget/packages/System.Diagnostics.Process/4.1.0/ref/netstandard1.4/System.Diagnostics.Process.dll
--reference:/home/xaviersanchez/.nuget/packages/System.Diagnostics.Tools/4.0.1/ref/netstandard1.0/System.Diagnostics.Tools.dll
--reference:/home/xaviersanchez/.nuget/packages/System.Diagnostics.Tracing/4.1.0/ref/netstandard1.5/System.Diagnostics.Tracing.dll
--reference:/home/xaviersanchez/.nuget/packages/System.Dynamic.Runtime/4.0.11/ref/netstandard1.3/System.Dynamic.Runtime.dll
--reference:/home/xaviersanchez/.nuget/packages/System.Globalization/4.0.11/ref/netstandard1.3/System.Globalization.dll
--reference:/home/xaviersanchez/.nuget/packages/System.Globalization.Calendars/4.0.1/ref/netstandard1.3/System.Globalization.Calendars.dll
--reference:/home/xaviersanchez/.nuget/packages/System.Globalization.Extensions/4.0.1/ref/netstandard1.3/System.Globalization.Extensions.dll
--reference:/home/xaviersanchez/.nuget/packages/System.Interactive.Async/3.0.0/lib/netstandard1.0/System.Interactive.Async.dll
--reference:/home/xaviersanchez/.nuget/packages/System.IO/4.1.0/ref/netstandard1.5/System.IO.dll
--reference:/home/xaviersanchez/.nuget/packages/System.IO.Compression/4.1.0/ref/netstandard1.3/System.IO.Compression.dll
--reference:/home/xaviersanchez/.nuget/packages/System.IO.Compression.ZipFile/4.0.1/ref/netstandard1.3/System.IO.Compression.ZipFile.dll
--reference:/home/xaviersanchez/.nuget/packages/System.IO.FileSystem/4.0.1/ref/netstandard1.3/System.IO.FileSystem.dll
--reference:/home/xaviersanchez/.nuget/packages/System.IO.FileSystem.Primitives/4.0.1/ref/netstandard1.3/System.IO.FileSystem.Primitives.dll
--reference:/home/xaviersanchez/.nuget/packages/System.IO.FileSystem.Watcher/4.0.0/ref/netstandard1.3/System.IO.FileSystem.Watcher.dll
--reference:/home/xaviersanchez/.nuget/packages/System.IO.MemoryMappedFiles/4.0.0/ref/netstandard1.3/System.IO.MemoryMappedFiles.dll
--reference:/home/xaviersanchez/.nuget/packages/System.IO.UnmanagedMemoryStream/4.0.1/ref/netstandard1.3/System.IO.UnmanagedMemoryStream.dll
--reference:/home/xaviersanchez/.nuget/packages/System.Linq/4.1.0/ref/netstandard1.6/System.Linq.dll
--reference:/home/xaviersanchez/.nuget/packages/System.Linq.Expressions/4.1.0/ref/netstandard1.6/System.Linq.Expressions.dll
--reference:/home/xaviersanchez/.nuget/packages/System.Linq.Parallel/4.0.1/ref/netstandard1.1/System.Linq.Parallel.dll
--reference:/home/xaviersanchez/.nuget/packages/System.Linq.Queryable/4.0.1/ref/netstandard1.0/System.Linq.Queryable.dll
--reference:/home/xaviersanchez/.nuget/packages/System.Net.Http/4.1.0/ref/netstandard1.3/System.Net.Http.dll
--reference:/home/xaviersanchez/.nuget/packages/System.Net.NameResolution/4.0.0/ref/netstandard1.3/System.Net.NameResolution.dll
--reference:/home/xaviersanchez/.nuget/packages/System.Net.Primitives/4.0.11/ref/netstandard1.3/System.Net.Primitives.dll
--reference:/home/xaviersanchez/.nuget/packages/System.Net.Requests/4.0.11/ref/netstandard1.3/System.Net.Requests.dll
--reference:/home/xaviersanchez/.nuget/packages/System.Net.Security/4.0.0/ref/netstandard1.3/System.Net.Security.dll
--reference:/home/xaviersanchez/.nuget/packages/System.Net.Sockets/4.1.0/ref/netstandard1.3/System.Net.Sockets.dll
--reference:/home/xaviersanchez/.nuget/packages/System.Net.WebHeaderCollection/4.0.1/ref/netstandard1.3/System.Net.WebHeaderCollection.dll
--reference:/home/xaviersanchez/.nuget/packages/System.Net.WebSockets/4.0.0/ref/netstandard1.3/System.Net.WebSockets.dll
--reference:/home/xaviersanchez/.nuget/packages/System.Numerics.Vectors/4.1.1/ref/netstandard1.0/System.Numerics.Vectors.dll
--reference:/home/xaviersanchez/.nuget/packages/System.ObjectModel/4.0.12/ref/netstandard1.3/System.ObjectModel.dll
--reference:/home/xaviersanchez/.nuget/packages/System.Reflection/4.1.0/ref/netstandard1.5/System.Reflection.dll
--reference:/home/xaviersanchez/.nuget/packages/System.Reflection.DispatchProxy/4.0.1/ref/netstandard1.3/System.Reflection.DispatchProxy.dll
--reference:/home/xaviersanchez/.nuget/packages/System.Reflection.Extensions/4.0.1/ref/netstandard1.0/System.Reflection.Extensions.dll
--reference:/home/xaviersanchez/.nuget/packages/System.Reflection.Metadata/1.3.0/lib/netstandard1.1/System.Reflection.Metadata.dll
--reference:/home/xaviersanchez/.nuget/packages/System.Reflection.Primitives/4.0.1/ref/netstandard1.0/System.Reflection.Primitives.dll
--reference:/home/xaviersanchez/.nuget/packages/System.Reflection.TypeExtensions/4.1.0/ref/netstandard1.5/System.Reflection.TypeExtensions.dll
--reference:/home/xaviersanchez/.nuget/packages/System.Resources.Reader/4.0.0/lib/netstandard1.0/System.Resources.Reader.dll
--reference:/home/xaviersanchez/.nuget/packages/System.Resources.ResourceManager/4.0.1/ref/netstandard1.0/System.Resources.ResourceManager.dll
--reference:/home/xaviersanchez/.nuget/packages/System.Runtime/4.1.0/ref/netstandard1.5/System.Runtime.dll
--reference:/home/xaviersanchez/.nuget/packages/System.Runtime.Extensions/4.1.0/ref/netstandard1.5/System.Runtime.Extensions.dll
--reference:/home/xaviersanchez/.nuget/packages/System.Runtime.Handles/4.0.1/ref/netstandard1.3/System.Runtime.Handles.dll
--reference:/home/xaviersanchez/.nuget/packages/System.Runtime.InteropServices/4.1.0/ref/netstandard1.5/System.Runtime.InteropServices.dll
--reference:/home/xaviersanchez/.nuget/packages/System.Runtime.InteropServices.RuntimeInformation/4.0.0/ref/netstandard1.1/System.Runtime.InteropServices.RuntimeInformation.dll
--reference:/home/xaviersanchez/.nuget/packages/System.Runtime.Loader/4.0.0/ref/netstandard1.5/System.Runtime.Loader.dll
--reference:/home/xaviersanchez/.nuget/packages/System.Runtime.Numerics/4.0.1/ref/netstandard1.1/System.Runtime.Numerics.dll
--reference:/home/xaviersanchez/.nuget/packages/System.Runtime.Serialization.Primitives/4.1.1/ref/netstandard1.3/System.Runtime.Serialization.Primitives.dll
--reference:/home/xaviersanchez/.nuget/packages/System.Security.Claims/4.0.1/ref/netstandard1.3/System.Security.Claims.dll
--reference:/home/xaviersanchez/.nuget/packages/System.Security.Cryptography.Algorithms/4.2.0/ref/netstandard1.6/System.Security.Cryptography.Algorithms.dll
--reference:/home/xaviersanchez/.nuget/packages/System.Security.Cryptography.Encoding/4.0.0/ref/netstandard1.3/System.Security.Cryptography.Encoding.dll
--reference:/home/xaviersanchez/.nuget/packages/System.Security.Cryptography.Primitives/4.0.0/ref/netstandard1.3/System.Security.Cryptography.Primitives.dll
--reference:/home/xaviersanchez/.nuget/packages/System.Security.Cryptography.X509Certificates/4.1.0/ref/netstandard1.4/System.Security.Cryptography.X509Certificates.dll
--reference:/home/xaviersanchez/.nuget/packages/System.Security.Principal/4.0.1/ref/netstandard1.0/System.Security.Principal.dll
--reference:/home/xaviersanchez/.nuget/packages/System.Text.Encoding/4.0.11/ref/netstandard1.3/System.Text.Encoding.dll
--reference:/home/xaviersanchez/.nuget/packages/System.Text.Encoding.Extensions/4.0.11/ref/netstandard1.3/System.Text.Encoding.Extensions.dll
--reference:/home/xaviersanchez/.nuget/packages/System.Text.Encodings.Web/4.0.0/lib/netstandard1.0/System.Text.Encodings.Web.dll
--reference:/home/xaviersanchez/.nuget/packages/System.Text.RegularExpressions/4.1.0/ref/netstandard1.6/System.Text.RegularExpressions.dll
--reference:/home/xaviersanchez/.nuget/packages/System.Threading/4.0.11/ref/netstandard1.3/System.Threading.dll
--reference:/home/xaviersanchez/.nuget/packages/System.Threading.Tasks/4.0.11/ref/netstandard1.3/System.Threading.Tasks.dll
--reference:/home/xaviersanchez/.nuget/packages/System.Threading.Tasks.Dataflow/4.6.0/lib/netstandard1.1/System.Threading.Tasks.Dataflow.dll
--reference:/home/xaviersanchez/.nuget/packages/System.Threading.Tasks.Extensions/4.0.0/lib/netstandard1.0/System.Threading.Tasks.Extensions.dll
--reference:/home/xaviersanchez/.nuget/packages/System.Threading.Tasks.Parallel/4.0.1/ref/netstandard1.1/System.Threading.Tasks.Parallel.dll
--reference:/home/xaviersanchez/.nuget/packages/System.Threading.Thread/4.0.0/ref/netstandard1.3/System.Threading.Thread.dll
--reference:/home/xaviersanchez/.nuget/packages/System.Threading.ThreadPool/4.0.10/ref/netstandard1.3/System.Threading.ThreadPool.dll
--reference:/home/xaviersanchez/.nuget/packages/System.Threading.Timer/4.0.1/ref/netstandard1.2/System.Threading.Timer.dll
--reference:/home/xaviersanchez/.nuget/packages/System.Xml.ReaderWriter/4.0.11/ref/netstandard1.3/System.Xml.ReaderWriter.dll
--reference:/home/xaviersanchez/.nuget/packages/System.Xml.XDocument/4.0.11/ref/netstandard1.3/System.Xml.XDocument.dll
/home/xaviersanchez/Documents/workspace/lab/DotNetCore/efc/Model.cs
/home/xaviersanchez/Documents/workspace/lab/DotNetCore/efc/Program.cs
/home/xaviersanchez/Documents/workspace/lab/DotNetCore/efc/Migrations/20160629123117_MyFirstMigration.cs
/home/xaviersanchez/Documents/workspace/lab/DotNetCore/efc/Migrations/BloggingContextModelSnapshot.cs
/home/xaviersanchez/Documents/workspace/lab/DotNetCore/efc/Migrations/20160629123117_MyFirstMigration.Designer.cs
